{
	"file_format_version" : "1.0.0",
	"layer" : {
		"name": "VK_LAYER_MND_enable_timeline_semaphore",
		"type": "GLOBAL",
		"library_path": "@target_path@",
		"api_version": "1.2.199",
		"implementation_version": "1",
		"description": "Monado enable timeline semaphore layer",
		"disable_environment": {
			"NO_ENABLE_TIMELINE_SEMAPHORE": "1"
		}
	}
}
